{
	"arriver":   ["er", "é", "és", "ée", "ées", "a", "ai", "aient", "ais", "ait", "ant", "as", "asse", "assent", "asses", "assiez", "assions", "e", "ent", "era", "erai", "eraient", "erais", "erait", "eras", "erez", "eriez", "erions", "erons", "eront", "es", "ez", "iez", "ions", "ons", "âmes", "ât", "âtes", "èrent"],
	"finir":     ["ir", "i", "is", "ie", "ies", "ira", "irai", "iraient", "irais", "irait", "iras", "irent", "irez", "iriez", "irions", "irons", "iront", "issaient", "issais", "issait", "issant", "isse", "issent", "isses", "issez", "issiez", "issions", "issons", "it", "îmes", "ît", "îtes"],
	"placer":    ["cer", "cé", "cés", "cée", "cées", "ce", "cent", "cera", "cerai", "ceraient", "cerais", "cerait", "ceras", "cerez", "ceriez", "cerions", "cerons", "ceront", "ces", "cez", "ciez", "cions", "cèrent", "ça", "çai", "çaient", "çais", "çait", "çant", "ças", "çasse", "çassent", "çasses", "çassiez", "çassions", "çons", "çâmes", "çât", "çâtes"],
	"bouger":    ["er", "é", "és", "ée", "ées", "e", "ea", "eai", "eaient", "eais", "eait", "eant", "eas", "easse", "eassent", "easses", "eassiez", "eassions", "ent", "eons", "era", "erai", "eraient", "erais", "erait", "eras", "erez", "eriez", "erions", "erons", "eront", "es", "ez", "eâmes", "eât", "eâtes", "iez", "ions", "èrent"],
	"appeler":   ["er", "é", "és", "ée", "ées", "a", "ai", "aient", "ais", "ait", "ant", "as", "asse", "assent", "asses", "assiez", "assions", "ez", "iez", "ions", "le", "lent", "lera", "lerai", "leraient", "lerais", "lerait", "leras", "lerez", "leriez", "lerions", "lerons", "leront", "les", "ons", "âmes", "ât", "âtes", "èrent"],
	"jeter":     ["er", "é", "és", "ée", "ées", "a", "ai", "aient", "ais", "ait", "ant", "as", "asse", "assent", "asses", "assiez", "assions", "ez", "iez", "ions", "ons", "te", "tent", "tera", "terai", "teraient", "terais", "terait", "teras", "terez", "teriez", "terions", "terons", "teront", "tes", "âmes", "ât", "âtes", "èrent"],
	"geler":     ["eler", "elé", "elés", "elée", "elées", "ela", "elai", "elaient", "elais", "elait", "elant", "elas", "elasse", "elassent", "elasses", "elassiez", "elassions", "elez", "eliez", "elions", "elons", "elâmes", "elât", "elâtes", "elèrent", "èle", "èlent", "èlera", "èlerai", "èleraient", "èlerais", "èlerait", "èleras", "èlerez", "èleriez", "èlerions", "èlerons", "èleront", "èles"],
	"acheter":   ["eter", "eté", "etés", "etée", "etées", "eta", "etai", "etaient", "etais", "etait", "etant", "etas", "etasse", "etassent", "etasses", "etassiez", "etassions", "etez", "etiez", "etions", "etons", "etâmes", "etât", "etâtes", "etèrent", "ète", "ètent", "ètera", "èterai", "èteraient", "èterais", "èterait", "èteras", "èterez", "èteriez", "èterions", "èterons", "èteront", "ètes"],
	"céder":     ["éder", "édé", "édés", "édée", "édées", "ède", "èdent", "èdes", "éda", "édai", "édaient", "édais", "édait", "édant", "édas", "édasse", "édassent", "édasses", "édassiez", "édassions", "édera", "éderai", "éderaient", "éderais", "éderait", "éderas", "éderez", "éderiez", "éderions", "éderons", "éderont", "édez", "édiez", "édions", "édons", "édâmes", "édât", "édâtes", "édèrent"],
	"épier":     ["er", "é", "és", "ée", "ées", "a", "ai", "aient", "ais", "ait", "ant", "as", "asse", "assent", "asses", "assiez", "assions", "e", "ent", "era", "erai", "eraient", "erais", "erait", "eras", "erez", "eriez", "erions", "erons", "eront", "es", "ez", "iez", "ions", "ons", "âmes", "ât", "âtes", "èrent"],
	"prier":     ["er", "é", "és", "ée", "ées", "a", "ai", "aient", "ais", "ait", "ant", "as", "asse", "assent", "asses", "assiez", "assions", "e", "ent", "era", "erai", "eraient", "erais", "erait", "eras", "erez", "eriez", "erions", "erons", "eront", "es", "ez", "iez", "ions", "ons", "âmes", "ât", "âtes", "èrent"],
	"noyer":     ["yer", "yé", "yés", "yée", "yées", "ie", "ient", "iera", "ierai", "ieraient", "ierais", "ierait", "ieras", "ierez", "ieriez", "ierions", "ierons", "ieront", "ies", "ya", "yai", "yaient", "yais", "yait", "yant", "yas", "yasse", "yassent", "yasses", "yassiez", "yassions", "yez", "yiez", "yions", "yons", "yâmes", "yât", "yâtes", "yèrent"],
	"payer":     ["yer", "yé", "yés", "yée", "yées", "ie", "ient", "iera", "ierai", "ieraient", "ierais", "ierait", "ieras", "ierez", "ieriez", "ierions", "ierons", "ieront", "ies", "ya", "yai", "yaient", "yais", "yait", "yant", "yas", "yasse", "yassent", "yasses", "yassiez", "yassions", "ye", "yent", "yera", "yerai", "yeraient", "yerais", "yerait", "yeras", "yerez", "yeriez", "yerions", "yerons", "yeront", "yes", "yez", "yiez", "yions", "yons", "yâmes", "yât", "yâtes", "yèrent"],
	"aller":     ["aller", "allé", "allés", "allée", "allées", "aille", "aillent", "ailles", "alla", "allai", "allaient", "allais", "allait", "allant", "allas", "allasse", "allassent", "allasses", "allassiez", "allassions", "allez", "alliez", "allions", "allons", "allâmes", "allât", "allâtes", "allèrent", "ira", "irai", "iraient", "irais", "irait", "iras", "irez", "iriez", "irions", "irons", "iront", "va", "vais", "vas", "vont"],
	"haïr":      ["ïr", "ï", "is", "ïe", "ies", "it", "rait", "ïmes", "ïra", "ïrai", "ïraient", "ïrais", "ïras", "ïrent", "ïrez", "ïriez", "ïrions", "ïrons", "ïront", "ïs", "ïssaient", "ïssais", "ïssait", "ïssant", "ïsse", "ïssent", "ïsses", "ïssez", "ïssiez", "ïssions", "ïssons", "ït", "ïtes"],
	"courir":    ["ir", "u", "us", "ue", "ues", "aient", "ais", "ait", "ant", "e", "ent", "es", "ez", "iez", "ions", "ons", "ra", "rai", "raient", "rais", "rait", "ras", "rez", "riez", "rions", "rons", "ront", "s", "t", "urent", "usse", "ussent", "usses", "ussiez", "ussions", "ut", "ûmes", "ût", "ûtes"],
	"cueillir":  ["ir", "i", "is", "ie", "ies", "aient", "ais", "ait", "ant", "e", "ent", "era", "erai", "eraient", "erais", "erait", "eras", "erez", "eriez", "erions", "erons", "eront", "es", "ez", "iez", "ions", "irent", "isse", "issent", "isses", "issiez", "issions", "it", "ons", "îmes", "ît", "îtes"],
	"assaillir": ["ir", "i", "is", "ie", "ies", "aient", "ais", "ait", "ant", "e", "ent", "es", "ez", "iez", "ions", "ira", "irai", "iraient", "irais", "irait", "iras", "irent", "irez", "iriez", "irions", "irons", "iront", "isse", "issent", "isses", "issiez", "issions", "it", "ons", "îmes", "ît", "îtes"],
	"servir":    ["vir", "vi", "vis", "s", "vie", "vies", "t", "vaient", "vais", "vait", "vant", "ve", "vent", "ves", "vez", "viez", "vions", "vira", "virai", "viraient", "virais", "virait", "viras", "virent", "virez", "viriez", "virions", "virons", "viront", "visse", "vissent", "visses", "vissiez", "vissions", "vit", "vons", "vîmes", "vît", "vîtes"],
	"bouillir":  ["illir", "illi", "illis", "illie", "illies", "illaient", "illais", "illait", "illant", "ille", "illent", "illes", "illez", "illiez", "illions", "illira", "illirai", "illiraient", "illirais", "illirait", "illiras", "illirent", "illirez", "illiriez", "illirions", "illirons", "illiront", "illisse", "illissent", "illisses", "illissiez", "illissions", "illit", "illons", "illîmes", "illît", "illîtes", "s", "t"],
	"partir":    ["tir", "ti", "tis", "tie", "ties", "s", "t", "taient", "tais", "tait", "tant", "te", "tent", "tes", "tez", "tiez", "tions", "tira", "tirai", "tiraient", "tirais", "tirait", "tiras", "tirent", "tirez", "tiriez", "tirions", "tirons", "tiront", "tisse", "tissent", "tisses", "tissiez", "tissions", "tit", "tons", "tîmes", "tît", "tîtes"],
	"fuir":      ["ir", "i", "is", "ie", "ies", "ient", "ira", "irai", "iraient", "irais", "irait", "iras", "irent", "irez", "iriez", "irions", "irons", "iront", "isse", "issent", "isses", "issiez", "issions", "it", "yaient", "yais", "yait", "yant", "yez", "yiez", "yions", "yons", "îmes", "ît", "îtes"],
	"couvrir":   ["rir", "ert", "erts", "erte", "ertes", "raient", "rais", "rait", "rant", "re", "rent", "res", "rez", "riez", "rions", "rira", "rirai", "riraient", "rirais", "rirait", "riras", "rirent", "rirez", "ririez", "ririons", "rirons", "riront", "ris", "risse", "rissent", "risses", "rissiez", "rissions", "rit", "rons", "rîmes", "rît", "rîtes"],
	"mourir":    ["ourir", "ort", "orts", "orte", "ortes", "eure", "eurent", "eures", "eurs", "eurt", "ouraient", "ourais", "ourait", "ourant", "ourez", "ouriez", "ourions", "ourons", "ourra", "ourrai", "ourraient", "ourrais", "ourrait", "ourras", "ourrez", "ourriez", "ourrions", "ourrons", "ourront", "oururent", "ourus", "ourusse", "ourussent", "ourusses", "ourussiez", "ourussions", "ourut", "ourûmes", "ourût", "ourûtes"],
	"vêtir":     ["ir", "u", "us", "ue", "ues", "", "aient", "ais", "ait", "ant", "e", "ent", "es", "ez", "iez", "ions", "ira", "irai", "iraient", "irais", "irait", "iras", "irent", "irez", "iriez", "irions", "irons", "iront", "is", "isse", "issent", "isses", "issiez", "issions", "it", "ons", "s", "îmes", "ît", "îtes"],
	"acquérir":  ["ir", "is", "ise", "ises", "erra", "errai", "erraient", "errais", "errait", "erras", "errez", "erriez", "errions", "errons", "erront", "iers", "iert", "irent", "isse", "issent", "isses", "issiez", "issions", "it", "ière", "ièrent", "ières", "éraient", "érais", "érait", "érant", "érez", "ériez", "érions", "érir", "érons", "îmes", "ît", "îtes"],
	"venir":     ["enir", "enu", "enus", "enue", "enues", "enaient", "enais", "enait", "enant", "enez", "eniez", "enions", "enons", "iendra", "iendrai", "iendraient", "iendrais", "iendrait", "iendras", "iendrez", "iendriez", "iendrions", "iendrons", "iendront", "ienne", "iennent", "iennes", "iens", "ient", "inrent", "ins", "insse", "inssent", "insses", "inssiez", "inssions", "int", "înmes", "înt", "întes"],
	"pleuvoir":  ["euvoir", "u", "eut", "euvait", "euvant", "euve", "euvra", "euvrait", "ut", "ût"],
	"prévoir":   ["oir", "u", "us", "ue", "ues", "irent", "is", "isse", "issent", "isses", "issiez", "issions", "it", "oie", "oient", "oies", "oira", "oirai", "oiraient", "oirais", "oirait", "oiras", "oirez", "oiriez", "oirions", "oirons", "oiront", "ois", "oit", "oyaient", "oyais", "oyait", "oyant", "oyez", "oyiez", "oyions", "oyons", "îmes", "ît", "îtes"],
	"pourvoir":  ["oir", "u", "us", "ue", "ues", "oie", "oient", "oies", "oira", "oirai", "oiraient", "oirais", "oirait", "oiras", "oirez", "oiriez", "oirions", "oirons", "oiront", "ois", "oit", "oyaient", "oyais", "oyait", "oyant", "oyez", "oyiez", "oyions", "oyons", "urent", "usse", "ussent", "usses", "ussiez", "ussions", "ut", "ûmes", "ût", "ûtes"],
	"asseoir":   ["eoir", "is", "ise", "ises", "eyaient", "eyais", "eyait", "eyant", "eye", "eyent", "eyes", "eyez", "eyiez", "eyions", "eyons", "ied", "ieds", "irent", "isse", "issent", "isses", "issiez", "issions", "it", "iéra", "iérai", "iéraient", "iérais", "iérait", "iéras", "iérez", "iériez", "iérions", "iérons", "iéront", "îmes", "ît", "îtes"],
	"mouvoir":   ["ouvoir", "û", "us", "ue", "ues", "eus", "eut", "euve", "euvent", "euves", "ouvaient", "ouvais", "ouvait", "ouvant", "ouvez", "ouviez", "ouvions", "ouvons", "ouvra", "ouvrai", "ouvraient", "ouvrais", "ouvrait", "ouvras", "ouvrez", "ouvriez", "ouvrions", "ouvrons", "ouvront", "urent", "usse", "ussent", "usses", "ussiez", "ussions", "ut", "ûmes", "ût", "ûtes"],
	"recevoir":  ["cevoir", "çu", "çus", "çue", "çues", "cevaient", "cevais", "cevait", "cevant", "cevez", "ceviez", "cevions", "cevons", "cevra", "cevrai", "cevraient", "cevrais", "cevrait", "cevras", "cevrez", "cevriez", "cevrions", "cevrons", "cevront", "çois", "çoit", "çoive", "çoivent", "çoives", "çurent", "çusse", "çussent", "çusses", "çussiez", "çussions", "çut", "çûmes", "çût", "çûtes"],
	"devoir":    ["evoir", "û", "us", "ue", "ues", "evaient", "evais", "evait", "evant", "evez", "eviez", "evions", "evons", "evra", "evrai", "evraient", "evrais", "evrait", "evras", "evrez", "evriez", "evrions", "evrons", "evront", "ois", "oit", "oive", "oivent", "oives", "urent", "usse", "ussent", "usses", "ussiez", "ussions", "ut", "ûmes", "ût", "ûtes"],
	"valoir":    ["loir", "lu", "lus", "lue", "lues", "ille", "illent", "illes", "laient", "lais", "lait", "lant", "lent", "lez", "liez", "lions", "lons", "lurent", "lusse", "lussent", "lusses", "lussiez", "lussions", "lut", "lûmes", "lût", "lûtes", "udra", "udrai", "udraient", "udrais", "udrait", "udras", "udrez", "udriez", "udrions", "udrons", "udront", "ut", "ux"],
	"équivaloir":["loir", "lu", "ille", "illent", "illes", "laient", "lais", "lait", "lant", "lent", "lez", "liez", "lions", "lons", "lurent", "lus", "lusse", "lussent", "lusses", "lussiez", "lussions", "lut", "lûmes", "lût", "lûtes", "udra", "udrai", "udraient", "udrais", "udrait", "udras", "udrez", "udriez", "udrions", "udrons", "udront", "ut", "ux"],
	"prévaloir": ["loir", "lu", "lus", "lue", "lues", "laient", "lais", "lait", "lant", "le", "lent", "les", "lez", "liez", "lions", "lons", "lurent", "lusse", "lussent", "lusses", "lussiez", "lussions", "lut", "lûmes", "lût", "lûtes", "udra", "udrai", "udraient", "udrais", "udrait", "udras", "udrez", "udriez", "udrions", "udrons", "udront", "ut", "ux"],
	"falloir":   ["lloir", "llu", "ille", "llait", "llut", "llût", "udra", "udrait", "ut"],
	"voir":      ["oir", "u", "us", "ue", "ues", "erra", "errai", "erraient", "errais", "errait", "erras", "errez", "erriez", "errions", "errons", "erront", "irent", "is", "isse", "issent", "isses", "issiez", "issions", "it", "oie", "oient", "oies", "ois", "oit", "oyaient", "oyais", "oyait", "oyant", "oyez", "oyiez", "oyions", "oyons", "îmes", "ît", "îtes"],
	"vouloir":   ["ouloir", "oulu", "oulus", "oulue", "oulues", "euille", "euillent", "euilles", "euillez", "eulent", "eut", "eux", "oudra", "oudrai", "oudraient", "oudrais", "oudrait", "oudras", "oudrez", "oudriez", "oudrions", "oudrons", "oudront", "oulaient", "oulais", "oulait", "oulant", "oulez", "ouliez", "oulions", "oulons", "oulurent", "oulusse", "oulussent", "oulusses", "oulussiez", "oulussions", "oulut", "oulûmes", "oulût", "oulûtes"],
	"savoir":    ["avoir", "u", "us", "ue", "ues", "achant", "ache", "achent", "aches", "achez", "achiez", "achions", "achons", "ais", "ait", "aura", "aurai", "auraient", "aurais", "aurait", "auras", "aurez", "auriez", "aurions", "aurons", "auront", "avaient", "avais", "avait", "avent", "avez", "aviez", "avions", "avons", "urent", "usse", "ussent", "usses", "ussiez", "ussions", "ut", "ûmes", "ût", "ûtes"],
	"pouvoir":   ["ouvoir", "u", "eut", "euvent", "eux", "ourra", "ourrai", "ourraient", "ourrais", "ourrait", "ourras", "ourrez", "ourriez", "ourrions", "ourrons", "ourront", "ouvaient", "ouvais", "ouvait", "ouvant", "ouvez", "ouviez", "ouvions", "ouvons", "uisse", "uissent", "uisses", "uissiez", "uissions", "urent", "us", "usse", "ussent", "usses", "ussiez", "ussions", "ut", "ûmes", "ût", "ûtes"],
	"avoir":     ["avoir", "eu", "eus", "eue", "eues", "a", "ai", "aie", "aient", "aies", "ait", "as", "aura", "aurai", "auraient", "aurais", "aurait", "auras", "aurez", "auriez", "aurions", "aurons", "auront", "avaient", "avais", "avait", "avez", "aviez", "avions", "avons", "ayant", "ayez", "ayons", "eurent", "eusse", "eussent", "eusses", "eussiez", "eussions", "eut", "eûmes", "eût", "eûtes", "ont"],
	"conclure":  ["ure", "u", "us", "ue", "ues", "uaient", "uais", "uait", "uant", "uent", "uez", "uiez", "uions", "uons", "ura", "urai", "uraient", "urais", "urait", "uras", "urent", "urez", "uriez", "urions", "urons", "uront", "usse", "ussent", "usses", "ussiez", "ussions", "ut", "ûmes", "ût", "ûtes"],
	"inclure":   ["ure", "u", "us", "use", "uses", "uaient", "uais", "uait", "uant", "ue", "uent", "ues", "uez", "uiez", "uions", "uons", "ura", "urai", "uraient", "urais", "urait", "uras", "urent", "urez", "uriez", "urions", "urons", "uront", "usse", "ussent", "usses", "ussiez", "ussions", "ut", "ûmes", "ût", "ûtes"],
	"rire":      ["ire", "i", "iaient", "iais", "iait", "iant", "ie", "ient", "ies", "iez", "iiez", "iions", "ions", "ira", "irai", "iraient", "irais", "irait", "iras", "irent", "irez", "iriez", "irions", "irons", "iront", "is", "isse", "issent", "isses", "issiez", "issions", "it", "îmes", "ît", "îtes"],
	"dire":      ["ire", "it", "its", "ite", "ites", "ira", "irai", "iraient", "irais", "irait", "iras", "irent", "irez", "iriez", "irions", "irons", "iront", "is", "isaient", "isais", "isait", "isant", "ise", "isent", "ises", "isiez", "isions", "isons", "isse", "issent", "isses", "issiez", "issions", "îmes", "ît", "îtes"],
	"médire":    ["ire", "it", "its", "ite", "ites", "ira", "irai", "iraient", "irais", "irait", "iras", "irent", "irez", "iriez", "irions", "irons", "iront", "is", "isaient", "isais", "isait", "isant", "ise", "isent", "ises", "isez", "isiez", "isions", "isons", "isse", "issent", "isses", "issiez", "issions", "îmes", "ît", "îtes"],
	"suffire":   ["ire", "i", "ira", "irai", "iraient", "irais", "irait", "iras", "irent", "irez", "iriez", "irions", "irons", "iront", "is", "isaient", "isais", "isait", "isant", "ise", "isent", "ises", "isez", "isiez", "isions", "isons", "isse", "issent", "isses", "issiez", "issions", "it", "îmes", "ît", "îtes"],
	"confire":   ["ire", "it", "its", "ite", "ites", "ira", "irai", "iraient", "irais", "irait", "iras", "irent", "irez", "iriez", "irions", "irons", "iront", "is", "isaient", "isais", "isait", "isant", "ise", "isent", "ises", "isez", "isiez", "isions", "isons", "isse", "issent", "isses", "issiez", "issions", "îmes", "ît", "îtes"],
	"nuire":     ["re", "", "s", "e", "es", "ra", "rai", "raient", "rais", "rait", "ras", "rez", "riez", "rions", "rons", "ront", "saient", "sais", "sait", "sant", "se", "sent", "ses", "sez", "siez", "sions", "sirent", "sis", "sisse", "sissent", "sisses", "sissiez", "sissions", "sit", "sons", "sîmes", "sît", "sîtes", "t"],
	"conduire":  ["re", "t", "ts", "te", "tes", "ra", "rai", "raient", "rais", "rait", "ras", "rez", "riez", "rions", "rons", "ront", "s", "saient", "sais", "sait", "sant", "se", "sent", "ses", "sez", "siez", "sions", "sirent", "sis", "sisse", "sissent", "sisses", "sissiez", "sissions", "sit", "sons", "sîmes", "sît", "sîtes"],
	"écrire":    ["re", "t", "ts", "te", "tes", "ra", "rai", "raient", "rais", "rait", "ras", "rez", "riez", "rions", "rons", "ront", "s", "vaient", "vais", "vait", "vant", "ve", "vent", "ves", "vez", "viez", "vions", "virent", "vis", "visse", "vissent", "visses", "vissiez", "vissions", "vit", "vons", "vîmes", "vît", "vîtes"],
	"suivre":    ["vre", "vi", "vis", "vie", "vies", "s", "t", "vaient", "vais", "vait", "vant", "ve", "vent", "ves", "vez", "viez", "vions", "virent", "visse", "vissent", "visses", "vissiez", "vissions", "vit", "vons", "vra", "vrai", "vraient", "vrais", "vrait", "vras", "vrez", "vriez", "vrions", "vrons", "vront", "vîmes", "vît", "vîtes"],
	"rendre":    ["re", "u", "us", "ue", "ues", "", "aient", "ais", "ait", "ant", "e", "ent", "es", "ez", "iez", "ions", "irent", "is", "isse", "issent", "isses", "issiez", "issions", "it", "ons", "ra", "rai", "raient", "rais", "rait", "ras", "rez", "riez", "rions", "rons", "ront", "s", "îmes", "ît", "îtes"],
	"rompre":    ["re", "u", "us", "ue", "ues", "aient", "ais", "ait", "ant", "e", "ent", "es", "ez", "iez", "ions", "irent", "is", "isse", "issent", "isses", "issiez", "issions", "it", "ons", "ra", "rai", "raient", "rais", "rait", "ras", "rez", "riez", "rions", "rons", "ront", "s", "t", "îmes", "ît", "îtes"],
	"battre":    ["tre", "tu", "tus", "tue", "tues", "", "s", "taient", "tais", "tait", "tant", "te", "tent", "tes", "tez", "tiez", "tions", "tirent", "tis", "tisse", "tissent", "tisses", "tissiez", "tissions", "tit", "tons", "tra", "trai", "traient", "trais", "trait", "tras", "trez", "triez", "trions", "trons", "tront", "tîmes", "tît", "tîtes"],
	"vaincre":   ["cre", "cu", "cus", "cue", "cues", "c", "cra", "crai", "craient", "crais", "crait", "cras", "crez", "criez", "crions", "crons", "cront", "cs", "quaient", "quais", "quait", "quant", "que", "quent", "ques", "quez", "quiez", "quions", "quirent", "quis", "quisse", "quissent", "quisses", "quissiez", "quissions", "quit", "quons", "quîmes", "quît", "quîtes"],
	"lire":      ["ire", "u", "us", "ue", "ues", "ira", "irai", "iraient", "irais", "irait", "iras", "irez", "iriez", "irions", "irons", "iront", "is", "isaient", "isais", "isait", "isant", "ise", "isent", "ises", "isez", "isiez", "isions", "isons", "it", "urent", "usse", "ussent", "usses", "ussiez", "ussions", "ut", "ûmes", "ût", "ûtes"],
	"croire":    ["oire", "u", "us", "ue", "ues", "oie", "oient", "oies", "oira", "oirai", "oiraient", "oirais", "oirait", "oiras", "oirez", "oiriez", "oirions", "oirons", "oiront", "ois", "oit", "oyaient", "oyais", "oyait", "oyant", "oyez", "oyiez", "oyions", "oyons", "urent", "usse", "ussent", "usses", "ussiez", "ussions", "ut", "ûmes", "ût", "ûtes"],
	"clore":     ["ore", "os", "ose", "oses", "ora", "orai", "oraient", "orais", "orait", "oras", "orez", "oriez", "orions", "orons", "oront", "osant", "osent", "osiez", "osions", "ôt"],
	"vivre":     ["ivre", "écu", "écus", "écue", "écues", "is", "it", "ivaient", "ivais", "ivait", "ivant", "ive", "ivent", "ives", "ivez", "iviez", "ivions", "ivons", "ivra", "ivrai", "ivraient", "ivrais", "ivrait", "ivras", "ivrez", "ivriez", "ivrions", "ivrons", "ivront", "écurent", "écusse", "écussent", "écusses", "écussiez", "écussions", "écut", "écûmes", "écût", "écûtes"],
	"moudre":    ["dre", "lu", "lus", "lue", "lues", "d", "dra", "drai", "draient", "drais", "drait", "dras", "drez", "driez", "drions", "drons", "dront", "ds", "laient", "lais", "lait", "lant", "le", "lent", "les", "lez", "liez", "lions", "lons", "lurent", "lusse", "lussent", "lusses", "lussiez", "lussions", "lut", "lûmes", "lût", "lûtes"],
	"coudre":    ["dre", "su", "sus", "sue", "sues", "d", "dra", "drai", "draient", "drais", "drait", "dras", "drez", "driez", "drions", "drons", "dront", "ds", "saient", "sais", "sait", "sant", "se", "sent", "ses", "sez", "siez", "sions", "sirent", "sis", "sisse", "sissent", "sisses", "sissiez", "sissions", "sit", "sons", "sîmes", "sît", "sîtes"],
	"joindre":   ["dre", "t", "ts", "te", "tes", "gnaient", "gnais", "gnait", "gnant", "gne", "gnent", "gnes", "gnez", "gniez", "gnions", "gnirent", "gnis", "gnisse", "gnissent", "gnisses", "gnissiez", "gnissions", "gnit", "gnons", "gnîmes", "gnît", "gnîtes", "ndra", "ndrai", "ndraient", "ndrais", "ndrait", "ndras", "ndre", "ndrez", "ndriez", "ndrions", "ndrons", "ndront", "ns", "nt"],
	"traire":    ["ire", "t", "ts", "te", "tes", "ie", "ient", "ies", "ira", "irai", "iraient", "irais", "irait", "iras", "irez", "iriez", "irions", "irons", "iront", "is", "it", "yaient", "yais", "yait", "yant", "yez", "yiez", "yions", "yons"],
	"absoudre":  ["udre", "ut", "uts", "ute", "utes", "lvaient", "lvais", "lvait", "lvant", "lve", "lvent", "lves", "lvez", "lviez", "lvions", "lvons", "udra", "udrai", "udraient", "udrais", "udrait", "udras", "udrez", "udriez", "udrions", "udrons", "udront", "us"],
	"craindre":  ["ndre", "nt", "nts", "nte", "ntes", "gnaient", "gnais", "gnait", "gnant", "gne", "gnent", "gnes", "gnez", "gniez", "gnions", "gnirent", "gnis", "gnisse", "gnissent", "gnisses", "gnissiez", "gnissions", "gnit", "gnons", "gnîmes", "gnît", "gnîtes", "ndra", "ndrai", "ndraient", "ndrais", "ndrait", "ndras", "ndrez", "ndriez", "ndrions", "ndrons", "ndront", "ns"],
	"peindre":   ["ndre", "nt", "nts", "nte", "ntes", "gnaient", "gnais", "gnait", "gnant", "gne", "gnent", "gnes", "gnez", "gniez", "gnions", "gnirent", "gnis", "gnisse", "gnissent", "gnisses", "gnissiez", "gnissions", "gnit", "gnons", "gnîmes", "gnît", "gnîtes", "ndra", "ndrai", "ndraient", "ndrais", "ndrait", "ndras", "ndrez", "ndriez", "ndrions", "ndrons", "ndront", "ns"],
	"boire":     ["oire", "u", "us", "ue", "ues", "oira", "oirai", "oiraient", "oirais", "oirait", "oiras", "oirez", "oiriez", "oirions", "oirons", "oiront", "ois", "oit", "oive", "oivent", "oives", "urent", "usse", "ussent", "usses", "ussiez", "ussions", "ut", "uvaient", "uvais", "uvait", "uvant", "uvez", "uviez", "uvions", "uvons", "ûmes", "ût", "ûtes"],
	"plaire":    ["aire", "u", "aira", "airai", "airaient", "airais", "airait", "airas", "airez", "airiez", "airions", "airons", "airont", "ais", "aisaient", "aisais", "aisait", "aisant", "aise", "aisent", "aises", "aisez", "aisiez", "aisions", "aisons", "aît", "urent", "us", "usse", "ussent", "usses", "ussiez", "ussions", "ut", "ûmes", "ût", "ûtes"],
	"taire":     ["aire", "u", "us", "ue", "ues", "aira", "airai", "airaient", "airais", "airait", "airas", "airez", "airiez", "airions", "airons", "airont", "ais", "aisaient", "aisais", "aisait", "aisant", "aise", "aisent", "aises", "aisez", "aisiez", "aisions", "aisons", "ait", "urent", "usse", "ussent", "usses", "ussiez", "ussions", "ut", "ûmes", "ût", "ûtes"],
	"croître":   ["oître", "û", "oissaient", "oissais", "oissait", "oissant", "oisse", "oissent", "oisses", "oissez", "oissiez", "oissions", "oissons", "oîs", "oît", "oîtra", "oîtrai", "oîtraient", "oîtrais", "oîtrait", "oîtras", "oîtrez", "oîtriez", "oîtrions", "oîtrons", "oîtront", "ûmes", "ûrent", "ûs", "ûsse", "ûssent", "ûsses", "ûssiez", "ûssions", "ût", "ûtes"],
	"accroître": ["oître", "u", "us", "ue", "ues", "ois", "oissaient", "oissais", "oissait", "oissant", "oisse", "oissent", "oisses", "oissez", "oissiez", "oissions", "oissons", "oît", "oîtra", "oîtrai", "oîtraient", "oîtrais", "oîtrait", "oîtras", "oîtrez", "oîtriez", "oîtrions", "oîtrons", "oîtront", "urent", "usse", "ussent", "usses", "ussiez", "ussions", "ut", "ûmes", "ût", "ûtes"],
	"mettre":    ["ettre", "is", "ise", "ises", "et", "ets", "ettaient", "ettais", "ettait", "ettant", "ette", "ettent", "ettes", "ettez", "ettiez", "ettions", "ettons", "ettra", "ettrai", "ettraient", "ettrais", "ettrait", "ettras", "ettrez", "ettriez", "ettrions", "ettrons", "ettront", "irent", "isse", "issent", "isses", "issiez", "issions", "it", "îmes", "ît", "îtes"],
	"connaître": ["aître", "u", "us", "ue", "ues", "ais", "aissaient", "aissais", "aissait", "aissant", "aisse", "aissent", "aisses", "aissez", "aissiez", "aissions", "aissons", "aît", "aîtra", "aîtrai", "aîtraient", "aîtrais", "aîtrait", "aîtras", "aîtrez", "aîtriez", "aîtrions", "aîtrons", "aîtront", "urent", "usse", "ussent", "usses", "ussiez", "ussions", "ut", "ûmes", "ût", "ûtes"],
	"prendre":   ["endre", "is", "ise", "ises", "enaient", "enais", "enait", "enant", "end", "endra", "endrai", "endraient", "endrais", "endrait", "endras", "endrez", "endriez", "endrions", "endrons", "endront", "ends", "enez", "eniez", "enions", "enne", "ennent", "ennes", "enons", "irent", "isse", "issent", "isses", "issiez", "issions", "it", "îmes", "ît", "îtes"],
	"naître":    ["aître", "é", "és", "ée", "ées", "ais", "aissaient", "aissais", "aissait", "aissant", "aisse", "aissent", "aisses", "aissez", "aissiez", "aissions", "aissons", "aquirent", "aquis", "aquisse", "aquissent", "aquisses", "aquissiez", "aquissions", "aquit", "aquîmes", "aquît", "aquîtes", "aît", "aîtra", "aîtrai", "aîtraient", "aîtrais", "aîtrait", "aîtras", "aîtrez", "aîtriez", "aîtrions", "aîtrons", "aîtront"],
	"renaître":  ["aître", "ais", "aissaient", "aissais", "aissait", "aissant", "aisse", "aissent", "aisses", "aissez", "aissiez", "aissions", "aissons", "aquirent", "aquis", "aquisse", "aquissent", "aquisses", "aquissiez", "aquissions", "aquit", "aquîmes", "aquît", "aquîtes", "aît", "aîtra", "aîtrai", "aîtraient", "aîtrais", "aîtrait", "aîtras", "aîtrez", "aîtriez", "aîtrions", "aîtrons", "aîtront", "é", "és"],
	"faire":     ["aire", "ait", "aits", "aite", "aites", "ais", "aisaient", "aisais", "aisait", "aisiez", "aisions", "aisons", "asse", "assent", "asses", "assiez", "assions", "era", "erai", "eraient", "erais", "erait", "eras", "erez", "eriez", "erions", "erons", "eront", "irent", "is", "isse", "issent", "isses", "issiez", "issions", "it", "ont", "îmes", "ît", "îtes"],
	"être":      ["être", "été", "es", "est", "furent", "fus", "fusse", "fussent", "fusses", "fussiez", "fussions", "fut", "fûmes", "fût", "fûtes", "sera", "serai", "seraient", "serais", "serait", "seras", "serez", "seriez", "serions", "serons", "seront", "soient", "sois", "soit", "sommes", "sont", "soyez", "soyons", "suis", "étaient", "étais", "était", "étant", "étiez", "étions", "êtes"],
	             
	"intensif":  {"1": ["if","ive","ivement"], "n": ["ifs","ives"]},
	"apaisant":  {"1": ["ant","ante"], "n": ["ants","antes"]},
	"heureux":   {"1": ["eux","euse","eusement"], "n": ["euses"]},
	"triste":    {"1": ["e","ement"], "n": ["es"]},
	"amical":    {"1": ["al","ale","alement"], "n": ["aux","ales"]},
	"content":   {"1": ["","e"], "n": ["s","es"]}
}